module gitlab.com/tfournier/hugo-serviceworker

go 1.19

require (
	github.com/sirupsen/logrus v1.9.0
	github.com/urfave/cli/v2 v2.17.1
	gitlab.com/evolves-fr/gommon v0.25.0
)

require (
	github.com/cpuguy83/go-md2man/v2 v2.0.2 // indirect
	github.com/russross/blackfriday/v2 v2.1.0 // indirect
	github.com/xrash/smetrics v0.0.0-20201216005158-039620a65673 // indirect
	golang.org/x/sys v0.0.0-20220715151400-c0bba94af5f8 // indirect
	gopkg.in/yaml.v3 v3.0.1 // indirect
)
